…
# Add predicted values to our dataset
Heart = Heart %>% mutate(HeartDiseaseKNN = KNNHeart$fitted.values)

# Let's take a look at the result
Heart %>% select(HeartDisease, HeartDiseaseKNN)
```

```
## # A tibble: 297 x 2
##    HeartDisease HeartDiseaseKNN
##    <fct>        <fct>          
##  1 No           No             
##  2 Yes          Yes            
##  3 Yes          Yes            
##  4 No           No             
##  5 No           No             
##  6 No           No             
##  7 Yes          Yes            
##  8 No           No             
##  9 Yes          Yes            
## 10 Yes          No             
## # ... with 287 more rows
```
…
